{
  "configVersion": 1,
  "timestamp": 1633244914610,
  "index": "/index.html",
  "assetGroups": [
    {
      "name": "app",
      "installMode": "prefetch",
      "updateMode": "prefetch",
      "cacheQueryOptions": {
        "ignoreVary": true
      },
      "urls": [
        "/favicon.ico",
        "/index.html",
        "/main.d5aaeb0ff425f0adbf1a.js",
        "/manifest.webmanifest",
        "/polyfills.8c151b8375e767ff858f.js",
        "/runtime.0e49e2b53282f40c8925.js",
        "/styles.df28a89385c02b090770.css"
      ],
      "patterns": []
    },
    {
      "name": "assets",
      "installMode": "lazy",
      "updateMode": "prefetch",
      "cacheQueryOptions": {
        "ignoreVary": true
      },
      "urls": [
        "/assets/icons/icon-128x128.png",
        "/assets/icons/icon-144x144.png",
        "/assets/icons/icon-152x152.png",
        "/assets/icons/icon-192x192.png",
        "/assets/icons/icon-384x384.png",
        "/assets/icons/icon-512x512.png",
        "/assets/icons/icon-72x72.png",
        "/assets/icons/icon-96x96.png",
        "/assets/images/animated/cloudy-day-1.svg",
        "/assets/images/animated/cloudy-day-2.svg",
        "/assets/images/animated/cloudy-day-3.svg",
        "/assets/images/animated/cloudy-night-1.svg",
        "/assets/images/animated/cloudy-night-2.svg",
        "/assets/images/animated/cloudy-night-3.svg",
        "/assets/images/animated/cloudy.svg",
        "/assets/images/animated/day.svg",
        "/assets/images/animated/night.svg",
        "/assets/images/animated/rainy-1.svg",
        "/assets/images/animated/rainy-2.svg",
        "/assets/images/animated/rainy-3.svg",
        "/assets/images/animated/rainy-4.svg",
        "/assets/images/animated/rainy-5.svg",
        "/assets/images/animated/rainy-6.svg",
        "/assets/images/animated/rainy-7.svg",
        "/assets/images/animated/snowy-1.svg",
        "/assets/images/animated/snowy-2.svg",
        "/assets/images/animated/snowy-3.svg",
        "/assets/images/animated/snowy-4.svg",
        "/assets/images/animated/snowy-5.svg",
        "/assets/images/animated/snowy-6.svg",
        "/assets/images/animated/thunder.svg",
        "/assets/images/animated/weather-sprite.svg",
        "/assets/images/animated/weather.svg",
        "/assets/images/animated/weather_sagittarius.svg",
        "/assets/images/animated/weather_sunset.svg",
        "/assets/images/clock.png"
      ],
      "patterns": []
    }
  ],
  "dataGroups": [],
  "hashTable": {
    "/assets/icons/icon-128x128.png": "d03f91ebc0bfed2d90bf8052036d78905f3a8fbb",
    "/assets/icons/icon-144x144.png": "2cdd2b786adcc2cd9220dc6d10a7067382788bdc",
    "/assets/icons/icon-152x152.png": "6735c6ec1e736216db14f2905121e0de26442d7f",
    "/assets/icons/icon-192x192.png": "f115db7ff6bf3feab842b8db2efb3b17af4d77eb",
    "/assets/icons/icon-384x384.png": "472fbe1967a450b3a81dea8c0b171fd058cf482c",
    "/assets/icons/icon-512x512.png": "f3f978e15d918d9c94792ee07837f7c09ce1b254",
    "/assets/icons/icon-72x72.png": "a2442d7fd945c7c24beedf82b43a307cfd314869",
    "/assets/icons/icon-96x96.png": "b590e6e6123317e666735a17c3490ee90a8c4756",
    "/assets/images/animated/cloudy-day-1.svg": "526aa93ce38f40b5246483f74093989de2bf7bac",
    "/assets/images/animated/cloudy-day-2.svg": "2df7e529f6539a06f6028e9d446a4b36aebbe22c",
    "/assets/images/animated/cloudy-day-3.svg": "c9b903e2ab34ac74c2773c588c09149e9f2f0ace",
    "/assets/images/animated/cloudy-night-1.svg": "28ab26b0d05d9691260454998e9fc5ca213e05bc",
    "/assets/images/animated/cloudy-night-2.svg": "625255ac68613acd24cf3c709e0c6370cb28aafb",
    "/assets/images/animated/cloudy-night-3.svg": "1f77f4f45b9cadcde26f9bebb23091dbd8912ce2",
    "/assets/images/animated/cloudy.svg": "dda4dd722499305e52fbb085684dfd60e7a67cdd",
    "/assets/images/animated/day.svg": "f81c28b0cebacc075c0c69db61435979453d7fd3",
    "/assets/images/animated/night.svg": "1c07c240a30d2c626c731b961b11496e9b2ad075",
    "/assets/images/animated/rainy-1.svg": "3b54dac83e0a414aa1dd609469b9ea5471ab3cda",
    "/assets/images/animated/rainy-2.svg": "08740b8c03707011c473839b3edb202390166121",
    "/assets/images/animated/rainy-3.svg": "e7d7c459f7bfca262d761fb11e9c4e396eef9d7d",
    "/assets/images/animated/rainy-4.svg": "08bb2d88c13be0c23833d8036eeb42aa76d8edae",
    "/assets/images/animated/rainy-5.svg": "e096752bac020437444db580f751e9a946c5286f",
    "/assets/images/animated/rainy-6.svg": "f457071e86edf03f8ba05ce1aa63c820c6eb46b2",
    "/assets/images/animated/rainy-7.svg": "54af4cfef4f5531091b78a71e136c2ee01ff5c7b",
    "/assets/images/animated/snowy-1.svg": "5d9d18b52229c8b0a681cf122896861b3fd35593",
    "/assets/images/animated/snowy-2.svg": "9198aa5874e8822df309a10a24266fcecd0a921c",
    "/assets/images/animated/snowy-3.svg": "f1629db9d2fa9c0b4da61e87e4b0c8de203be0b2",
    "/assets/images/animated/snowy-4.svg": "4ac0a283334c23dddf3834e42f2e2d0fdf8ccde7",
    "/assets/images/animated/snowy-5.svg": "3f819e57c08d641aea5ce002776200e6faa3e8ba",
    "/assets/images/animated/snowy-6.svg": "e556518ba24cbe2227043808679b60f1585aee30",
    "/assets/images/animated/thunder.svg": "fb088a704d2185e14cf5f9ab1523f546deb258b7",
    "/assets/images/animated/weather-sprite.svg": "bad9cb933dc296d655c4ca8fb54f051985d70134",
    "/assets/images/animated/weather.svg": "73ab65b876b20b345dd8f397550fcf9226cad7c1",
    "/assets/images/animated/weather_sagittarius.svg": "3fac04fbe1da3e79515c7d00affb72eb7ac76e3f",
    "/assets/images/animated/weather_sunset.svg": "b68abb8c3971ff89bcafbf9fa67c42e07b29e107",
    "/assets/images/clock.png": "698b0cce3b0b5aeb427bbc369573dcfad3dec91d",
    "/favicon.ico": "0c635c80fd1f3928f87930e44a739eb592d398a4",
    "/index.html": "ed71a6164a1e6f0d0c297066c72f8a5995e42a39",
    "/main.d5aaeb0ff425f0adbf1a.js": "35cd55c396aac71c29778a9577ad317d5309b311",
    "/manifest.webmanifest": "6015ffe8e17977d5c23d697e5917c2251e075f0f",
    "/polyfills.8c151b8375e767ff858f.js": "763cd3b34dfa4600ebb9d9588ec7116988e98920",
    "/runtime.0e49e2b53282f40c8925.js": "a9aafcf49f49145093fc831efd9b8e2f6c71bb9c",
    "/styles.df28a89385c02b090770.css": "9c61749781e72223e187d7df927831c9799f5e80"
  },
  "navigationUrls": [
    {
      "positive": true,
      "regex": "^\\/.*$"
    },
    {
      "positive": false,
      "regex": "^\\/(?:.+\\/)?[^/]*\\.[^/]*$"
    },
    {
      "positive": false,
      "regex": "^\\/(?:.+\\/)?[^/]*__[^/]*$"
    },
    {
      "positive": false,
      "regex": "^\\/(?:.+\\/)?[^/]*__[^/]*\\/.*$"
    }
  ],
  "navigationRequestStrategy": "performance"
}